^D:\FILES\SCHOOL\HARDWARE_2\GAME_CLIENT\SRC\GAME_CLIENT_PCH.CPP
/c /Iinc /I../RakNet/inc /I../Common/inc /I"../extern/vld-2.3/inc" /I"../extern/sdl2-2.0.1/include" /I"../extern/glm-0.9.5.2/glm" /ZI /nologo /W3 /WX- /sdl /Od /Oy- /D _MBCS /Gm /EHsc /RTC1 /MDd /GS /fp:precise /Zc:wchar_t /Zc:forScope /Yc"game_client_pch.h" /Fp"DEBUG\GAME_CLIENTD.PCH" /Fo"DEBUG\\" /Fd"DEBUG\VC120.PDB" /Gd /TP /FIgame_client_pch.h /analyze- D:\FILES\SCHOOL\HARDWARE_2\GAME_CLIENT\SRC\GAME_CLIENT_PCH.CPP
^D:\FILES\SCHOOL\HARDWARE_2\GAME_CLIENT\SRC\GAME_MENU.CPP
/c /Iinc /I../RakNet/inc /I../Common/inc /I"../extern/vld-2.3/inc" /I"../extern/sdl2-2.0.1/include" /I"../extern/glm-0.9.5.2/glm" /ZI /nologo /W3 /WX- /sdl /Od /Oy- /D _MBCS /Gm /EHsc /RTC1 /MDd /GS /fp:precise /Zc:wchar_t /Zc:forScope /Yu"game_client_pch.h" /Fp"DEBUG\GAME_CLIENTD.PCH" /Fo"DEBUG\\" /Fd"DEBUG\VC120.PDB" /Gd /TP /FIgame_client_pch.h /analyze- D:\FILES\SCHOOL\HARDWARE_2\GAME_CLIENT\SRC\GAME_MENU.CPP
^D:\FILES\SCHOOL\HARDWARE_2\GAME_CLIENT\SRC\GAME_MODE.CPP
/c /Iinc /I../RakNet/inc /I../Common/inc /I"../extern/vld-2.3/inc" /I"../extern/sdl2-2.0.1/include" /I"../extern/glm-0.9.5.2/glm" /ZI /nologo /W3 /WX- /sdl /Od /Oy- /D _MBCS /Gm /EHsc /RTC1 /MDd /GS /fp:precise /Zc:wchar_t /Zc:forScope /Yu"game_client_pch.h" /Fp"DEBUG\GAME_CLIENTD.PCH" /Fo"DEBUG\\" /Fd"DEBUG\VC120.PDB" /Gd /TP /FIgame_client_pch.h /analyze- D:\FILES\SCHOOL\HARDWARE_2\GAME_CLIENT\SRC\GAME_MODE.CPP
^D:\FILES\SCHOOL\HARDWARE_2\GAME_CLIENT\SRC\NETWORK_MANAGER.CPP
/c /Iinc /I../RakNet/inc /I../Common/inc /I"../extern/vld-2.3/inc" /I"../extern/sdl2-2.0.1/include" /I"../extern/glm-0.9.5.2/glm" /ZI /nologo /W3 /WX- /sdl /Od /Oy- /D _MBCS /Gm /EHsc /RTC1 /MDd /GS /fp:precise /Zc:wchar_t /Zc:forScope /Yu"game_client_pch.h" /Fp"DEBUG\GAME_CLIENTD.PCH" /Fo"DEBUG\\" /Fd"DEBUG\VC120.PDB" /Gd /TP /FIgame_client_pch.h /analyze- D:\FILES\SCHOOL\HARDWARE_2\GAME_CLIENT\SRC\NETWORK_MANAGER.CPP
^D:\FILES\SCHOOL\HARDWARE_2\GAME_CLIENT\SRC\GAME_MANAGER.CPP
/c /Iinc /I../RakNet/inc /I../Common/inc /I"../extern/vld-2.3/inc" /I"../extern/sdl2-2.0.1/include" /I"../extern/glm-0.9.5.2/glm" /ZI /nologo /W3 /WX- /sdl /Od /Oy- /D _MBCS /Gm /EHsc /RTC1 /MDd /GS /fp:precise /Zc:wchar_t /Zc:forScope /Yu"game_client_pch.h" /Fp"DEBUG\GAME_CLIENTD.PCH" /Fo"DEBUG\\" /Fd"DEBUG\VC120.PDB" /Gd /TP /FIgame_client_pch.h /analyze- D:\FILES\SCHOOL\HARDWARE_2\GAME_CLIENT\SRC\GAME_MANAGER.CPP
^D:\FILES\SCHOOL\HARDWARE_2\GAME_CLIENT\SRC\MAIN.CPP
/c /Iinc /I../RakNet/inc /I../Common/inc /I"../extern/vld-2.3/inc" /I"../extern/sdl2-2.0.1/include" /I"../extern/glm-0.9.5.2/glm" /ZI /nologo /W3 /WX- /sdl /Od /Oy- /D _MBCS /Gm /EHsc /RTC1 /MDd /GS /fp:precise /Zc:wchar_t /Zc:forScope /Yu"game_client_pch.h" /Fp"DEBUG\GAME_CLIENTD.PCH" /Fo"DEBUG\\" /Fd"DEBUG\VC120.PDB" /Gd /TP /FIgame_client_pch.h /analyze- D:\FILES\SCHOOL\HARDWARE_2\GAME_CLIENT\SRC\MAIN.CPP
